domain,pages
podatki.gov.si,12177
www.gov.si,11846
eugo.gov.si,2861
spvt.mp.gov.si,2508
www.arrs.gov.si,2281
meteo.arso.gov.si,2101
www.fu.gov.si,1678
gov.si,1503
www.ess.gov.si,1248
gisportal.gov.si,1074
euprava.gov.si,987
e-uprava.gov.si,971
si-trust.gov.si,955
www.arso.gov.si,893
www.umar.gov.si,817
eionet-si.arso.gov.si,785
www.si-trust.gov.si,715
evem.gov.si,634
okolje.arso.gov.si,600
agromet.mkgp.gov.si,496
agromet.mko.gov.si,491
www.stopbirokraciji.gov.si,448
seznami.gov.si,428
eionet-en.arso.gov.si,422
www.mju.gov.si,336
kazalci.arso.gov.si,298
www.e-prostor.gov.si,259
www.geoportal.gov.si,245
www.eugo.gov.si,228
english.ess.gov.si,206
www.biotechnology-gmo.gov.si,199
m.ess.gov.si,171
enotnazbirkaukrepov.gov.si,157
esvetovanje.ess.gov.si,140
www.mddsz.gov.si,134
www.mzz.gov.si,131
hungary.ess.gov.si,116
www.projekt.e-prostor.gov.si,115
www.osha.mddsz.gov.si,108
ua.gov.si,105
www.mk.gov.si,101
italiano.ess.gov.si,96
www.mp.gov.si,95
www.up.gov.si,94
upravneenote.arhiv-spletisc.gov.si,84
vreme.arso.gov.si,79
intrastat-surs.gov.si,77
www.upravneenote.gov.si,73
si-trust-data.gov.si,73
www.mnz.gov.si,70
www.mf.gov.si,69
www.ujp.gov.si,67
www.uvhvvr.gov.si,66
arhiv.mm.gov.si,63
Spletni2.furs.gov.si,63
mf.arhiv-spletisc.gov.si,63
www.mizs.gov.si,59
rkg.gov.si,57
mzz.arhiv-spletisc.gov.si,57
mddsz.arhiv-spletisc.gov.si,56
mp.arhiv-spletisc.gov.si,56
www.mo.gov.si,49
arhiv.arhiv-spletisc.gov.si,45
mgrt.arhiv-spletisc.gov.si,44
www.mkgp.gov.si,43
www.uk.gov.si,43
www.mvn.e-prostor.gov.si,41
www.mgrt.gov.si,39
www.ti.gov.si,38
ukom.arhiv-spletisc.gov.si,38
uvtp.arhiv-spletisc.gov.si,37
mz.arhiv-spletisc.gov.si,34
www.sigov-ca.gov.si,33
www.ursjv.gov.si,33
www.mzi.gov.si,32
protokol.arhiv-spletisc.gov.si,32
www.ca.gov.si,30
www.mzip.gov.si,30
mnz.gov.si,30
www.id.gov.si,30
uszs.arhiv-spletisc.gov.si,30
mop.arhiv-spletisc.gov.si,28
srsn.arhiv-spletisc.gov.si,28
www.unp.gov.si,27
iop.arhiv-spletisc.gov.si,27
svrk.arhiv-spletisc.gov.si,27
ikglr.arhiv-spletisc.gov.si,26
www.gu.gov.si,25
www.kpv.gov.si,25
spletni2.furs.gov.si,24
iss.arhiv-spletisc.gov.si,24
www.gsv.gov.si,23
ii.arhiv-spletisc.gov.si,23
uppd.arhiv-spletisc.gov.si,23
www.evroterm.gov.si,21
www.svz.gov.si,21
svz.arhiv-spletisc.gov.si,21
www.zi.gov.si,21
arsq.gov.si,20
www.pis.gov.si,20
www.mop.gov.si,19
portal.evs.gov.si,19
ti.arhiv-spletisc.gov.si,19
www.mz.gov.si,17
arsktrp.arhiv-spletisc.gov.si,17
uoim.arhiv-spletisc.gov.si,17
prostor3.gov.si,16
cip.gov.si,16
vlada.arhiv-spletisc.gov.si,16
kpv.arso.gov.si,16
nio.gov.si,15
apl.ess.gov.si,14
sova.arhiv-spletisc.gov.si,14
ecrp.gov.si,12
mnz.arhiv-spletisc.gov.si,12
uvhvvr.arhiv-spletisc.gov.si,12
mkgp.arhiv-spletisc.gov.si,11
up.arhiv-spletisc.gov.si,11
www.mirs.gov.si,11
gis.arso.gov.si,10
potresi.arso.gov.si,10
sicas.gov.si,10
www2.gov.si,9
mk.arhiv-spletisc.gov.si,9
www.arsktrp.gov.si,9
miniblagajna.fu.gov.si,8
uk.arhiv-spletisc.gov.si,8
mzi.arhiv-spletisc.gov.si,7
e-storitve-zirs.gov.si,7
www.iop.gov.si,7
evroterm.gov.si,7
prostor4.gov.si,6
sirena.arso.gov.si,6
teorija-priprava.gov.si,6
www.arhiv.vurs.gov.si,6
odlozisce.ujp.gov.si,6
id.arhiv-spletisc.gov.si,6
fito-gis.mko.gov.si,6
www.ikglr.gov.si,6
www.arhiv.gov.si,5
vode.arso.gov.si,5
ejn.gov.si,5
ecarina.carina.gov.si,5
pregled.arsktrp.gov.si,5
www.enotnazbirkaukrepov.gov.si,5
gis.gov.si,4
www.dv.gov.si,4
mrrsp.gov.si,4
un.arhiv-spletisc.gov.si,4
eportal.ess.gov.si,4
gea.arso.gov.si,4
www.mko.gov.si,4
www.ukom.gov.si,4
e-prostor.gov.si,3
www.zgs.gov.si,3
eprostor.gov.si,3
gu.arhiv-spletisc.gov.si,3
www.pocitnice.gov.si,3
e2.gov.si,3
proracun.gov.si,3
www.natura2000.gov.si,3
mid.gov.si,3
e-kmetija.gov.si,3
www.arhiv.mju.gov.si,3
www.mg.gov.si,3
spot.gov.si,2
www.di.gov.si,2
storitve.pis.gov.si,2
prostor.gov.si,2
eua-prijave.gov.si,2
ujpnet.ujp.gov.si,2
cen.gov.si,2
www.evode.gov.si,2
mju.arhiv-spletisc.gov.si,2
mirs.arhiv-spletisc.gov.si,2
akreditacije.ukom.gov.si,2
www.iss.gov.si,2
www.ursm.gov.si,2
www.mizks.gov.si,2
www.arhiv.mp.gov.si,2
www.uszs.gov.si,2
www.sova.gov.si,2
eionet.arso.gov.si,2
gis.furs.gov.si,2
prostor-s.gov.si,1
www.svrk.gov.si,1
mop.gov.si,1
ejr.ekultura.gov.si,1
du-sts.gov.si,1
www.vrste-uelj.gov.si,1
rs.ess.gov.si,1
eracuni.ujp.gov.si,1
betaujpnet.ujp.gov.si,1
reh.ars.gov.si,1
idp-ise.mp.gov.si,1
di.arhiv-spletisc.gov.si,1
dv.arhiv-spletisc.gov.si,1
gsv.arhiv-spletisc.gov.si,1
mizs.arhiv-spletisc.gov.si,1
mo.arhiv-spletisc.gov.si,1
ursjv.arhiv-spletisc.gov.si,1
uvps.arhiv-spletisc.gov.si,1
ursm.arhiv-spletisc.gov.si,1
unp.arhiv-spletisc.gov.si,1
zi.arhiv-spletisc.gov.si,1
www.uvps.gov.si,1
www.pportal.gov.si,1
emddsz.gov.si,1
www.ii.gov.si,1
www.uvtp.gov.si,1
www.dc.gov.si,1
kos.arso.gov.si,1
forum2.arsktrp.gov.si,1
www.uppd.gov.si,1
pomoc.beguncem.gov.si,1
www.mzp.gov.si,1
www.djn.mf.gov.si,1
djn.mju.gov.si,1
www.uvk.gov.si,1
evrokorpus.gov.si,1
neo.gov.si,1
www.mpju.gov.si,1
mk.gov.si,1
